<svg width="48" height="48" viewBox="0 0 48 48" fill="none" xmlns="http://www.w3.org/2000/svg">
<rect width="48" height="48" rx="6" fill="#F6C000" fill-opacity="0.1"/>
<path d="M30.1375 14.175V19.275L24 22.8125V15.725L28.4125 13.225C28.584 13.1258 28.7782 13.0726 28.9763 13.0705C29.1744 13.0684 29.3696 13.1175 29.5432 13.2131C29.7167 13.3086 29.8626 13.4474 29.9667 13.6159C30.0708 13.7845 30.1297 13.977 30.1375 14.175ZM12.075 26.175L16.4875 28.675L22.6375 25.25L16.5 21.6375L12.0875 24.1375C11.9009 24.2337 11.7443 24.3792 11.6345 24.5581C11.5247 24.737 11.466 24.9426 11.4647 25.1525C11.4635 25.3624 11.5196 25.5686 11.6272 25.7489C11.7348 25.9291 11.8896 26.0765 12.075 26.175V26.175ZM31.5 33.825V28.725L25.3625 25.25V32.3375L29.7875 34.8375C29.9632 34.936 30.1617 34.9867 30.3632 34.9844C30.5646 34.9821 30.7619 34.9269 30.9353 34.8244C31.1087 34.7219 31.2522 34.5756 31.3513 34.4002C31.4504 34.2248 31.5017 34.0264 31.5 33.825Z" fill="#F6C000"/>
<path opacity="0.3" d="M19.5875 13.175L24 15.675V22.7625L17.8625 19.275V14.175C17.8618 13.9728 17.9144 13.774 18.015 13.5986C18.1157 13.4232 18.2608 13.2774 18.4357 13.176C18.6107 13.0746 18.8093 13.0211 19.0115 13.0209C19.2137 13.0207 19.4124 13.0739 19.5875 13.175V13.175ZM18.2125 34.825L22.6375 32.325V25.25L16.5 28.725V33.825C16.5005 34.0254 16.5534 34.2222 16.6534 34.3958C16.7534 34.5695 16.897 34.714 17.0701 34.815C17.2431 34.9161 17.4396 34.9702 17.64 34.9719C17.8404 34.9737 18.0377 34.923 18.2125 34.825V34.825ZM35.925 24.1875L31.5125 21.6875L25.3625 25.25L31.5 28.725L35.9125 26.225C36.099 26.1288 36.2557 25.9833 36.3655 25.8044C36.4753 25.6255 36.534 25.4199 36.5353 25.21C36.5365 25.0001 36.4804 24.7939 36.3728 24.6136C36.2652 24.4334 36.1104 24.286 35.925 24.1875V24.1875Z" fill="#F6C000"/>
</svg>
