<svg width="48" height="48" viewBox="0 0 48 48" fill="none" xmlns="http://www.w3.org/2000/svg">
<rect width="48" height="48" rx="6" fill="#F1416C" fill-opacity="0.1"/>
<path opacity="0.3" d="M32.8625 31.5L25.3625 24L32.6125 16.7C32.7881 16.5242 32.8867 16.2859 32.8867 16.0375C32.8867 15.7891 32.7881 15.5508 32.6125 15.375C32.4367 15.1994 32.1985 15.1008 31.95 15.1008C31.7016 15.1008 31.4633 15.1994 31.2875 15.375L24 22.575L16.7875 15.25C16.6117 15.0744 16.3735 14.9758 16.125 14.9758C15.8766 14.9758 15.6383 15.0744 15.4625 15.25C15.287 15.4258 15.1883 15.6641 15.1883 15.9125C15.1883 16.1609 15.287 16.3992 15.4625 16.575L22.75 23.9125L15.25 31.5C15.0963 31.6719 15.0113 31.8944 15.0113 32.125C15.0113 32.3556 15.0963 32.5781 15.25 32.75C15.4286 32.9215 15.665 33.0196 15.9125 33.025C16.1348 33.0062 16.3431 32.9086 16.5 32.75L24 25.25L31.5 32.75C31.6786 32.9215 31.915 33.0196 32.1625 33.025C32.4105 33.0221 32.6479 32.9236 32.825 32.75C32.984 32.5828 33.0757 32.3628 33.0826 32.1322C33.0896 31.9015 33.0112 31.6764 32.8625 31.5Z" fill="#F1416C"/>
<path d="M15.7625 33.1125C15.5145 33.1096 15.2772 33.0111 15.1 32.8375C14.9256 32.6558 14.8273 32.4143 14.825 32.1625V26.9125C14.8282 26.6649 14.9281 26.4283 15.1032 26.2532C15.2783 26.078 15.5149 25.9782 15.7625 25.975C16.0101 25.9815 16.2454 26.0845 16.4182 26.2619C16.5909 26.4394 16.6876 26.6773 16.6875 26.925V31.225H20.9875C21.2343 31.228 21.4704 31.3257 21.6472 31.4978C21.824 31.67 21.9279 31.9034 21.9375 32.15C21.9392 32.2742 21.9161 32.3974 21.8698 32.5126C21.8234 32.6278 21.7546 32.7326 21.6674 32.821C21.5802 32.9094 21.4763 32.9796 21.3617 33.0275C21.2471 33.0753 21.1242 33.1 21 33.1L15.75 33.1625L15.7625 33.1125Z" fill="#F1416C"/>
<path d="M32.2875 22.025C32.0399 22.0185 31.8046 21.9155 31.6319 21.7381C31.4591 21.5606 31.3624 21.3227 31.3625 21.075V16.775H27.0625C26.8139 16.775 26.5754 16.6762 26.3996 16.5004C26.2238 16.3246 26.125 16.0861 26.125 15.8375C26.125 15.5889 26.2238 15.3504 26.3996 15.1746C26.5754 14.9988 26.8139 14.9 27.0625 14.9H32.325C32.449 14.893 32.573 14.9141 32.6877 14.9617C32.8024 15.0093 32.9049 15.0822 32.9875 15.175C33.0795 15.2582 33.152 15.3607 33.1995 15.4753C33.2471 15.5899 33.2686 15.7136 33.2625 15.8375V21.0875C33.2626 21.2138 33.2372 21.3389 33.1877 21.4551C33.1383 21.5714 33.0659 21.6765 32.9748 21.764C32.8837 21.8516 32.7759 21.9198 32.6578 21.9647C32.5397 22.0095 32.4137 22.03 32.2875 22.025Z" fill="#F1416C"/>
<path d="M32.2375 33.1125L26.9875 33.05C26.7388 33.05 26.5004 32.9512 26.3246 32.7754C26.1488 32.5996 26.05 32.3611 26.05 32.1125C26.0623 31.8657 26.1667 31.6325 26.3426 31.4589C26.5185 31.2854 26.7531 31.1841 27 31.175H31.3V26.875C31.3 26.6285 31.397 26.3919 31.5701 26.2165C31.7433 26.041 31.9785 25.9408 32.225 25.9375C32.3495 25.9305 32.474 25.9495 32.5908 25.9931C32.7075 26.0368 32.8139 26.1043 32.9032 26.1913C32.9925 26.2782 33.0628 26.3828 33.1096 26.4983C33.1564 26.6139 33.1786 26.7379 33.175 26.8625L33.2375 32.1125C33.2352 32.3643 33.1369 32.6058 32.9625 32.7875C32.8717 32.8901 32.7601 32.9722 32.6351 33.0283C32.5101 33.0843 32.3745 33.113 32.2375 33.1125Z" fill="#F1416C"/>
<path d="M15.7125 22.025C15.4639 22.025 15.2254 21.9262 15.0496 21.7504C14.8738 21.5746 14.775 21.3361 14.775 21.0875V15.8375C14.7704 15.7119 14.7926 15.5868 14.84 15.4705C14.8874 15.3541 14.959 15.2491 15.05 15.1625C15.1342 15.0718 15.237 15.0003 15.3513 14.9529C15.4656 14.9054 15.5888 14.8831 15.7125 14.8875H20.975C21.2236 14.8875 21.4621 14.9863 21.6379 15.1621C21.8137 15.3379 21.9125 15.5764 21.9125 15.825C21.9125 16.0736 21.8137 16.3121 21.6379 16.4879C21.4621 16.6637 21.2236 16.7625 20.975 16.7625H16.675V21.0625C16.6751 21.3102 16.5784 21.5481 16.4056 21.7256C16.2329 21.903 15.9976 22.006 15.75 22.0125L15.7125 22.025Z" fill="#F1416C"/>
</svg>
