<svg width="49" height="48" viewBox="0 0 49 48" fill="none" xmlns="http://www.w3.org/2000/svg">
<rect x="0.333344" width="48" height="48" rx="6" fill="#F1416C" fill-opacity="0.1"/>
<path opacity="0.3" d="M32.7458 15.5125H15.9208C13.6634 15.5125 11.8333 17.3425 11.8333 19.6V29.925C11.8333 32.1825 13.6634 34.0125 15.9208 34.0125H32.7458C35.0033 34.0125 36.8333 32.1825 36.8333 29.925V19.6C36.8333 17.3425 35.0033 15.5125 32.7458 15.5125Z" fill="#F1416C"/>
<path d="M36.8333 20.175H11.8333V23.35H36.8333V20.175Z" fill="#F1416C"/>
</svg>
