<svg width="49" height="48" viewBox="0 0 49 48" fill="none" xmlns="http://www.w3.org/2000/svg">
<rect x="0.333344" width="48" height="48" rx="6" fill="#50CD89" fill-opacity="0.1"/>
<g opacity="0.3">
<path d="M26.2709 36.35C24.264 36.6592 22.212 36.4749 20.2924 35.8129C18.3727 35.1509 16.6433 34.0313 15.2536 32.5508C13.8638 31.0703 12.8557 29.2735 12.3164 27.3159C11.7771 25.3582 11.7228 23.2987 12.1582 21.3154C12.5936 19.332 13.5056 17.4847 14.8154 15.933C16.1251 14.3813 17.7932 13.1721 19.6753 12.4098C21.5573 11.6476 23.5968 11.3554 25.6172 11.5584C27.6375 11.7614 29.5781 12.4536 31.2709 13.575C31.4647 13.7127 31.6271 13.8901 31.7471 14.0954C31.8671 14.3007 31.942 14.5292 31.9668 14.7657C31.9916 15.0022 31.9658 15.2413 31.8911 15.467C31.8163 15.6928 31.6944 15.9 31.5334 16.075L30.3959 17.325C30.1252 17.614 29.7616 17.7987 29.3685 17.8467C28.9755 17.8947 28.5781 17.8029 28.2459 17.5875C27.3169 17.0253 26.2769 16.6716 25.1978 16.5508C24.1187 16.4299 23.0262 16.5448 21.9959 16.8875C20.7797 17.2782 19.6835 17.9731 18.8111 18.9063C17.9388 19.8394 17.3192 20.9799 17.0112 22.2196C16.7032 23.4593 16.717 24.7572 17.0511 25.9901C17.3853 27.223 18.0288 28.3501 18.9207 29.2646C19.8126 30.1791 20.9233 30.8506 22.1475 31.2155C23.3716 31.5804 24.6687 31.6266 25.9157 31.3497C27.1628 31.0728 28.3184 30.482 29.2731 29.6332C30.2277 28.7845 30.9498 27.706 31.3709 26.5H26.2834C25.8325 26.5 25.4001 26.3209 25.0813 26.0021C24.7625 25.6833 24.5834 25.2509 24.5834 24.8V23.175C24.5899 22.7285 24.7719 22.3025 25.09 21.9891C25.4081 21.6756 25.8368 21.5 26.2834 21.5H35.1334C35.5821 21.5 36.0126 21.6774 36.331 21.9935C36.6495 22.3096 36.8301 22.7388 36.8334 23.1875V23.6875C36.8334 29.5875 32.1084 35.475 26.2709 36.35Z" fill="#50CD89"/>
</g>
<path d="M16.9709 22.7492C17.2535 21.0017 18.1502 19.4123 19.4997 18.2666C20.8492 17.121 22.5631 16.4943 24.3334 16.4992V11.4992C23.2367 11.4954 22.1443 11.634 21.0834 11.9117C18.1409 12.6868 15.5822 14.5085 13.887 17.0354C12.1917 19.5623 11.4764 22.6208 11.8752 25.6374C12.2739 28.654 13.7593 31.4215 16.0528 33.4212C18.3464 35.4208 21.2906 36.5152 24.3334 36.4992V31.4992C23.2454 31.4944 22.1715 31.2531 21.1862 30.7918C20.2008 30.3306 19.3277 29.6605 18.6272 28.828C17.9267 27.9955 17.4158 27.0206 17.1298 25.9709C16.8437 24.9213 16.7895 23.8219 16.9709 22.7492Z" fill="#50CD89"/>
</svg>
