<svg width="48" height="48" viewBox="0 0 48 48" fill="none" xmlns="http://www.w3.org/2000/svg">
<rect width="48" height="48" rx="6" fill="#7239EA" fill-opacity="0.1"/>
<path opacity="0.3" d="M24.0625 36.5C22.4145 36.5034 20.7854 36.1494 19.2875 35.4625C19.064 35.3541 18.8911 35.1635 18.8049 34.9305C18.7187 34.6975 18.7259 34.4403 18.825 34.2125C18.9309 33.9868 19.1214 33.8118 19.3553 33.7253C19.5891 33.6387 19.8476 33.6476 20.075 33.75C21.2936 34.3045 22.6145 34.5987 23.9533 34.6138C25.292 34.6289 26.6192 34.3645 27.85 33.8375C28.0777 33.7514 28.3297 33.7559 28.5542 33.8502C28.7786 33.9445 28.9583 34.1213 29.0561 34.3443C29.1539 34.5672 29.1624 34.8191 29.0799 35.0482C28.9973 35.2772 28.83 35.4658 28.6125 35.575C27.1756 36.1932 25.6266 36.5081 24.0625 36.5Z" fill="#7239EA"/>
<path opacity="0.3" d="M34.475 24.9375C34.2416 24.9357 34.017 24.8481 33.8441 24.6913C33.6712 24.5345 33.5621 24.3196 33.5375 24.0875C33.3986 22.7855 32.9942 21.5258 32.3492 20.3863C31.7042 19.2468 30.8323 18.2517 29.7875 17.4625C29.6112 17.3035 29.5008 17.0844 29.478 16.8481C29.4552 16.6118 29.5217 16.3756 29.6644 16.1859C29.8071 15.9962 30.0156 15.8668 30.2489 15.8231C30.4822 15.7795 30.7234 15.8247 30.925 15.95C32.1805 16.8953 33.228 18.089 34.0022 19.4568C34.7764 20.8245 35.2607 22.337 35.425 23.9C35.4389 24.0232 35.4281 24.148 35.3934 24.267C35.3587 24.3861 35.3007 24.4971 35.2229 24.5936C35.145 24.6901 35.0487 24.7702 34.9396 24.8292C34.8306 24.8882 34.7109 24.925 34.5875 24.9375H34.475Z" fill="#7239EA"/>
<path opacity="0.3" d="M13.65 24.9375H13.55C13.3051 24.9033 13.0837 24.7738 12.9339 24.5772C12.784 24.3805 12.7179 24.1326 12.75 23.8875C12.9153 22.2969 13.4123 20.7587 14.209 19.3721C15.0056 17.9855 16.0841 16.7814 17.375 15.8375C17.4735 15.7468 17.59 15.678 17.7169 15.6354C17.8439 15.5929 17.9784 15.5778 18.1116 15.5909C18.2448 15.604 18.3738 15.6451 18.49 15.7116C18.6062 15.778 18.7071 15.8683 18.786 15.9764C18.8649 16.0846 18.9201 16.2082 18.9479 16.3391C18.9756 16.4701 18.9754 16.6055 18.9472 16.7363C18.919 16.8672 18.8635 16.9906 18.7843 17.0986C18.7051 17.2065 18.6039 17.2964 18.4875 17.3625C17.4022 18.1473 16.4941 19.1516 15.8222 20.3102C15.1503 21.4688 14.7296 22.7557 14.5875 24.0875C14.5629 24.3196 14.4538 24.5345 14.2809 24.6913C14.1079 24.8481 13.8834 24.9357 13.65 24.9375Z" fill="#7239EA"/>
<path d="M23.975 18.775C25.9839 18.775 27.6125 17.1464 27.6125 15.1375C27.6125 13.1286 25.9839 11.5 23.975 11.5C21.966 11.5 20.3375 13.1286 20.3375 15.1375C20.3375 17.1464 21.966 18.775 23.975 18.775Z" fill="#7239EA"/>
<path d="M15.25 33.7125C17.2589 33.7125 18.8875 32.0839 18.8875 30.075C18.8875 28.0661 17.2589 26.4375 15.25 26.4375C13.2411 26.4375 11.6125 28.0661 11.6125 30.075C11.6125 32.0839 13.2411 33.7125 15.25 33.7125Z" fill="#7239EA"/>
<path d="M32.75 33.7125C34.7589 33.7125 36.3875 32.0839 36.3875 30.075C36.3875 28.0661 34.7589 26.4375 32.75 26.4375C30.7411 26.4375 29.1125 28.0661 29.1125 30.075C29.1125 32.0839 30.7411 33.7125 32.75 33.7125Z" fill="#7239EA"/>
</svg>
